{
    "Char":"r",
    "Name":"rat",
    "Color":"#878988",
    "ColorDark":"#878988",
    "Layer":5,
    "AlwaysVisible":false,
    "Blocked":true,
    "BlocksSight":false,
    "AIType":3,
    "AITriggered":false,
    "HPMax":1,
    "HPCurrent":1,
    "Attack":2,
    "Defense":0,
    "Speed":0,
    "Stuck":false,
    "SpawnTimer":0,
    "TurnCounter": 0,
    "RangedMaxAmmo": 0,
    "RangedCurAmmo": 0,
    "ThrowablesMax": 0,
    "ThrowablesCur": 0,
    "ChallengeLevel": 1,
    "Equipment":[
        null,
        null,
        null
    ],
    "Inventory":[
        null
    ]
}
