{
    "Char":"@",
    "Name":"player",
    "Color":"white",
    "ColorDark":"white",
    "Layer":6,
    "AlwaysVisible":true,
    "Blocked":true,
    "BlocksSight":false,
    "AIType":1,
    "AITriggered":false,
    "HPMax":100,
    "HPCurrent":100,
    "Attack":5,
    "Defense":2,
    "SpawnTimer":-1,
    "Stuck":false,
    "TurnCounter": 0,
    "RangedMaxAmmo": 12,
    "RangedCurAmmo": 12,
    "ThrowablesMax": 3,
    "ThrowablesCur": 3,
    "ChallengeLevel": 0,
    "Equipment":[
        {
            "Layer":4,
            "X":0,
            "Y":0,
            "Char":"}",
            "Name":"melee",
            "Color":"yellow",
            "ColorDark":"yellow",
            "AlwaysVisible":true,
            "Blocked":false,
            "BlocksSight":false,
            "DmgMinimal": 1,
            "DmgMaximal": 6,
            "Pickable":true,
            "Equippable":true,
            "Consumable":false,
            "Slot":0,
            "Use":0
        },
        {
            "Layer":4,
            "X":0,
            "Y":0,
            "Char":"{",
            "Name":"ranged",
            "Color":"green",
            "ColorDark":"green",
            "AlwaysVisible":true,
            "Blocked":false,
            "BlocksSight":false,
            "DmgMinimal":2,
            "DmgMaximal":8,
            "Pickable":true,
            "Equippable":true,
            "Consumable":false,
            "Slot":1,
            "Use":0
        },
        {
            "Layer":4,
            "X":0,
            "Y":0,
            "Char":"|",
            "Name":"throwable",
            "Color":"red",
            "ColorDark":"red",
            "AlwaysVisible":true,
            "Blocked":false,
            "BlocksSight":false,
            "DmgMinimal":6,
            "DmgMaximal":14,
            "Pickable":true,
            "Equippable":true,
            "Consumable":false,
            "Slot":2,
            "Use":0
        }
    ],
    "Inventory":[
        {
            "Layer":-1,
            "X":-1,
            "Y":-1,
            "Char":"",
            "Name":"INVALID PLACEHOLDER",
            "Color":"",
            "ColorDark":"",
            "AlwaysVisible":false,
            "Blocked":false,
            "BlocksSight":false,
            "DmgMinimal":-1,
            "DmgMaximal":-1,
            "Pickable":false,
            "Equippable":false,
            "Consumable":false,
            "Slot":-1,
            "Use":-1
        }
    ]
}
